17;3164.72
17;3207.54
17;3209.78
17;3190.75
17;3250.22
17;3348.36
17;3348.36
17;3348.36
17;3355.23
17;3351.73
17;3353.11
17;3401.44
17;3510.54
17;3510.54
17;3510.54
17;3607.05
17;3723.41
17;3755.22
17;3751.62
17;3753.01
17;3753.01
17;3753.01
17;3751.11
17;3680.51
17;3684.31
17;3652.07
17;3650.02
17;3650.02
17;3650.02
17;3541.36
17;3545.01
17;3551.62
17;3322.55
17;3323.02
17;3323.02
17;3323.02
17;3376.4
17;3451.62
17;3581.77
17;3640.29
17;3720.12
17;3720.12
17;3720.12
17;3820.83
17;3910.74
17;4105.15
17;4190.89
17;4229.94
17;4229.94
17;4229.94
17;4276.64
17;4285.18
17;4325.1
17;4327.82
17;4329.11
17;4329.11
17;4329.11
17;4329.11
17;4329.11
17;4334.41
17;4339.77
17;4158.77
17;4158.77
17;4158.77
17;3962.86
17;3879.78
17;3690.28
17;3430.87
17;3209.13
17;3209.13
17;3209.13
17;2930.74
17;2804.61
17;2770.84
17;2777.69
17;2772.62
17;2772.62
17;2772.62
17;2807.54
17;2803.11
17;2905.76
17;3014.02
17;3009.81
17;3009.81
17;3009.81
17;3063.18
17;3098.32
17;3203.62
17;3451.74
17;3790.81
17;3790.81
17;3790.81
17;3709.63
17;4097.56
17;4201.62
17;4304.73
17;4407.51
17;4407.51
17;4407.51
17;4411.22
17;4411.82
17;4412.01
17;4412.01
17;4412.01
17;4412.01
17;4412.01
17;4412.85
17;4507.63
17;4601.57
17;4708.77
17;4711.73
17;4711.73
17;4711.73
17;4908.73
17;4871.62
17;4512.33
17;4280.72
17;4283.17
17;4283.17
17;4283.17
17;4283.17
17;4608.75
17;4907.63
17;4989.07
17;5105.71
17;5105.71
17;5105.71
17;5113.87
17;5117.11
17;5118.09
17;5201.87
17;5383.11
17;5383.11
17;5383.11
17;5411.73
17;5507.83
17;5711.53
17;5801.55
17;5807.58
17;5807.58
17;5807.58
17;5851.63
17;5890.73
17;5907.87
17;5980.75
17;6079.87
17;6079.87
17;6079.87
17;6079.87
17;6081.67
17;6108.97
17;6112.88
17;6205.98
17;6205.98
17;6205.98
17;6308.62
17;6480.63
17;6540.93
17;6780.93
17;7107.86
17;7107.86
17;7107.86
17;7297.07
17;7480.97
17;7711.14
17;8104.71
17;8287.53
17;8287.53
17;8287.53
17;8291.47
17;8292.84
17;8293.89
17;8301.71
17;8301.71
17;8301.71
17;8301.71
17;8284.17
17;7980.67
17;7984.07
17;7873.05
17;7780.95
17;7780.95
17;7780.95
17;7780.95
17;7690.63
17;7678.93
17;7674.09
17;7672.81
17;7672.81
17;7672.81
17;7671.97
17;7960.55
17;8109.99
17;8460.87
17;8493.97
17;8493.97
17;8493.97
17;8481.07
17;8470.74
17;8469.87
17;8469.87
17;8790.84
17;8790.84
17;8790.84
17;8820.52
17;8917.51
17;9390.95
17;9787.79
17;10389.79
17;10389.79
17;10389.79
17;11185.95
17;12197.74
17;14760.89
17;17980.95
17;18982.93
17;18982.93
17;18982.93
17;16480.17
17;13077.01
17;10387.55
17;10987.97
17;12163.68
17;12163.68
17;12163.68
17;12894.75
17;14158.47
17;15445.07
17;15501.81
17;16256.74
17;16256.74
17;16256.74
17;16280.05
17;16840.75
17;16845.07
17;16850.47
17;16857.52
17;16857.52
17;16857.52
17;16891.95
17;17562.56
17;17662.73
17;17730.85
17;18470.97
17;18470.97
17;18470.45
17;19105.45
17;19490.97
17;19870.85
17;20192.95
17;21105.95
17;21105.95
17;21105.95
17;21105.95
17;21790.95
17;22430.65
17;23218.54
17;23744.63
17;23744.63
17;23744.63
17;24431.56
17;25237.02
17;23786.68
17;22938.23
17;22337.22
17;22337.22
17;22337.22
17;23781.34
17;25128.56
17;27051.64
17;28434.07
17;29146.11
17;29146.11
17;29146.11
17;29168.14
17;29170.91
17;29387.69
17;27651.15
17;26749.28
17;26749.28
17;26749.28
17;26645.68
17;26808.31
17;27212.4
17;29173.29
17;31109.3
17;31109.3
17;31109.3
17;32123.78
17;33348.41
17;34101.73
17;36201.18
17;38087.43
17;38087.43
17;38087.43
17;40072.99
17;42715.91
17;42144.02
17;40323.49
17;41152.81
17;41152.81
17;41152.81
17;41243.87
17;41194.87
17;41290.28
17;42293.57
17;44347.76
17;44347.76
17;44347.76
17;46238.67
17;48532.11
17;49706.5
17;49830.98
17;52128.74
17;52128.74
17;52128.74
17;55216.67
17;57378.87
17;60942.07
17;65962.69
17;73218.75