6531.24;6538.9163;6506.74;6570.26;6554.11;6449.7;6554.12
6531.24;6538.9163;6506.74;6570.26;6554.11;6450.1;6574.30
6531.24;6538.9163;6506.73;6570.26;6554.11;6452.0;6574.30
6531.24;6538.9163;6517.87;6570.26;6554.11;6454.8;6574.30
6531.24;6538.9163;6517.87;6570.26;6554.11;6453.5;6574.30
6531.24;6539.5263;6517.87;6570.26;6554.11;6454.9;6574.30
6531.24;6539.5263;6517.87;6570.26;6554.11;6454.9;6563.00
6531.24;6539.5263;6513.83;6570.26;6563;6454.9;6563.00
6531.24;6539.5263;6506.74;6570.26;6563;6457.9;6563.00
6547.64;6539.5263;6506.74;6570.26;6563;6459.8;6563.00
6547.64;6539.5263;6506.74;6570.26;6563;6459.9;6563.00
6547.64;6544.6475;6513.83;6570.26;6563;6461.3;6557.89
6547.64;6544.6475;6506.74;6570.26;6563;6461.3;6557.89
6547.64;6544.6475;6513.83;6570.26;6563;6461.3;6557.89
6547.64;6544.6475;6513.83;6570.26;6564.3;6461.3;6557.89
6547.64;6544.6475;6512.14;6570.26;6564.3;6469.0;6557.89
6547.64;6544.6475;6512.74;6570.26;6564.3;6462.9;6570.00
6547.64;6546.5925;6512.14;6570.26;6564.3;6465.2;6570.00
6547.64;6546.5925;6512.14;6570.26;6564.3;6468.0;6570.00
6547.64;6546.5925;6512.14;6570.26;6564.3;6469.0;6570.00
6547.64;6546.5925;6512.14;6570.26;6564.3;6468.9;6570.00
6547.64;6546.5925;6512.14;6570.26;6570;6469.0;6570.00
6547.64;6546.5925;6512.14;6570.26;6570;6469.5;6570.00
6547.64;6555.0875;6512.14;6570.26;6570;6469.0;6570.00
6547.64;6555.0875;6515.61;6570.26;6570;6469.5;6570.00
6547.64;6555.0875;6515.61;6570.26;6570;6469.5;6570.00
6547.64;6555.0875;6513.83;6570.26;6570;6469.5;6570.00
6547.64;6555.0875;6512.14;6570.26;6570;6469.5;6581.00
6547.64;6555.0875;6513.83;6570.26;6570.01;6469.5;6581.00
6547.64;6555.0875;6513.83;6570.26;6570.01;6469.5;6581.00
6547.64;6555.0875;6513.83;6570.26;6570.01;6469.5;6581.00
6547.64;6556.5675;6513.83;6570.26;6570.01;6469.5;6581.00
6547.64;6556.5675;6496.08;6570.26;6570.01;6469.5;6581.00
6547.64;6556.5675;6512.74;6570.26;6570.01;6469.5;6581.00
0;0;0;0;0;0;0
6554.33;6562.4263;6536.37;6600.00;6586;6500.0;6586.11
6554.33;6562.4263;6536.37;6600.00;6586;6508.0;6586.11
6554.33;6566.4638;6536.37;6600.00;6586;6510.0;6586.11
6554.33;6566.4638;6536.37;6600.00;6586;6510.0;6586.11
6554.33;6566.4638;6536.37;6600.00;6586;6511.7;6596.59
6554.33;6566.4638;6536.37;6600.00;6586;6519.9;6596.59
6554.33;6566.4638;6536.37;6600.00;6586;6519.3;6596.59
6554.33;6566.4638;6536.37;6600.00;6595.22;6520.0;6596.59
6554.33;6573.7438;6536.37;6600.00;6595.22;6519.8;6596.59
6554.33;6573.7438;6556.48;6600.00;6595.22;6519.8;6596.72
6554.33;6573.7438;6556.48;6600.00;6595.22;6519.7;6596.72
6554.33;6573.7438;6556.48;6600.00;6595.22;6518.0;6596.72
6554.33;6573.7438;6527.04;6580.00;6595.22;6519.4;6596.72
6554.33;6573.7438;6536.37;6580.00;6595.22;6519.7;6596.72
6554.33;6580.5913;6559.97;6580.00;6604;6519.8;6633.12
6554.33;6580.5913;6556.48;6580.00;6604;6518.7;6633.12
6554.33;6580.5913;6556.48;6580.00;6604;6519.6;6633.12
6554.33;6580.5913;6559.97;6580.00;6604;6519.7;6633.12
6554.33;6580.5913;6539.48;6580.00;6604;6519.0;6633.12
6554.33;6580.5913;6539.48;6647.33;6604;6519.4;6635.00
6554.33;6607.8313;6539.48;6647.33;6604;6520.0;6635.00
6554.33;6607.8313;6539.48;6647.33;6622.34;6520.0;6635.00
6554.33;6607.8313;6556.48;6647.33;6622.34;6519.6;6635.00
6554.33;6607.8313;6556.48;6645.08;6622.34;6519.8;6635.00
6554.33;6607.8313;6556.48;6645.08;6622.34;6542.3;6635.00
6554.33;6607.8313;6556.48;6645.08;6622.34;6531.4;6625.66
6554.33;6607.8313;6575.46;6645.08;6622.34;6540.4;6625.66
6554.33;6607.8313;6536.37;6645.08;6622.34;6542.4;6625.66
6554.33;6614.1688;6575.46;6645.08;6622.34;6546.0;6625.66
6554.33;6614.1688;6575.46;6645.08;6621.37;6548.0;6625.66
6554.33;6614.1688;6536.37;6645.08;6621.37;6545.7;6636.46
6651.96;6614.1688;6577.18;6645.08;6621.37;6549.2;6636.46
6651.96;6614.1688;6559.56;6645.08;6621.37;6550.7;6636.46
6651.96;6614.1688;6577.18;6645.08;6621.37;6556.8;6636.46
6651.96;6622.675;6559.56;6645.08;6621.37;6562.2;6636.46
6651.96;6622.675;6575.46;6645.08;6621.37;6574.3;6636.46
6651.96;6622.675;6575.46;6645.08;6633.03;6574.0;6644.50
6651.96;6622.675;6575.46;6645.08;6633.03;6577.6;6644.50
6651.96;6622.675;6559.56;6645.08;6633.03;6577.2;6644.50
6651.96;6622.675;6559.56;6645.08;6633.03;6580.3;6644.50
6651.96;6622.675;6559.56;6645.08;6633.03;6599.0;6644.50
6651.96;6643.5338;6559.56;6645.08;6633.03;6582.0;6644.50
6651.96;6643.5338;6577.18;6670.72;6633.03;6588.1;6644.50
6651.96;6643.5338;6577.19;6670.72;6633.03;6576.6;6644.50
6651.96;6643.5338;6594.48;6670.72;6651.96;6571.4;6644.50
6651.96;6643.5338;6594.47;6670.72;6651.96;6553.9;6644.50
6651.96;6643.5338;6577.19;6670.72;6651.96;6557.8;6644.50
6651.96;6643.5338;6594.48;6670.72;6651.96;6554.0;6644.50
6651.96;6643.5338;6594.48;6670.72;6651.96;6554.5;6651.97
6651.96;6640.3563;6594.48;6670.72;6651.96;6569.7;6651.97
6651.96;6640.3563;6594.48;6670.72;6651.96;6570.1;6651.97
6651.96;6640.3563;6594.48;6670.72;6651.96;6569.3;6651.97
6651.96;6640.3563;6594.48;6670.72;6651.03;6570.0;6651.97
6651.96;6640.3563;6594.48;6670.72;6651.03;6570.1;6651.97
6651.96;6640.3563;6617.8;6670.72;6651.03;6569.0;6651.97
6651.96;6646.65;6594.45;6670.72;6651.03;6567.3;6651.97
6651.96;6646.65;6594.45;6670.72;6651.03;6570.1;6651.97
6651.96;6646.65;6618.35;6670.72;6651.03;6570.1;6651.97
6651.96;6646.65;6616.01;6670.72;6651.03;6577.2;6651.97
6651.96;6646.65;6617.8;6670.72;6660;6572.0;6661.98
6651.96;6646.65;6615.41;6670.72;6660;6574.5;6661.98
6651.96;6646.65;6616.01;6670.72;6660;6579.0;6661.98
6651.96;6646.65;6616.11;6670.72;6660;6580.0;6661.98
6651.96;6652.6013;6616.11;6670.72;6660;6580.1;6661.98
6651.96;6652.6013;6616.11;6670.72;6660;6579.7;6670.14
6651.96;6652.6013;6616.01;6670.72;6666.66;6579.9;6670.14
6640.87;6652.6013;6615.41;6670.72;6666.66;6578.0;6670.14
6640.87;6652.6013;6615.41;6670.72;6666.66;6577.8;6670.14
6640.87;6652.6013;6616.28;6670.72;6666.66;6575.0;6670.14
6640.87;6658.1075;6615.41;6670.72;6666.66;6574.3;6670.14
6640.87;6658.1075;6624.07;6670.72;6666.66;6572.6;6670.14
6640.87;6658.1075;6624.07;6670.72;6683;6572.6;6670.14
6640.87;6658.1075;6624.07;6670.72;6683;6571.7;6670.14
6640.87;6662.0563;6624.07;6670.72;6683;6570.0;6676.20
6640.87;6662.0563;6624.07;6670.72;6683;6566.6;6676.20
6640.87;6662.0563;6616.11;6670.72;6683;6561.5;6676.20
6640.87;6662.0563;6624.07;6670.72;6683;6559.8;6676.20
6640.87;6662.0563;6624.07;6670.72;6683;6550.0;6670.00
6640.87;6662.0563;6624.07;6670.72;6665.8;6550.0;6670.00
6640.87;6662.0563;6630.42;6670.72;6665.8;6546.1;6670.00
6640.87;6657.3225;6624.07;6670.72;6665.8;6548.6;6670.00
6640.87;6657.3225;6624.07;6670.72;6665.8;6547.9;6670.51
6640.87;6657.3225;6618.84;6670.72;6665.8;6548.6;6670.51
6640.87;6657.3225;6630.15;6670.72;6665.8;6565.9;6670.51
6640.87;6651.4513;6630.15;6670.72;6670;6580.0;6670.51
6640.87;6651.4513;6618.84;6670.72;6670;6580.7;6670.51
6640.87;6651.4513;6618.84;6670.72;6670;6586.0;6667.20
6640.87;6651.4513;6630.15;6670.72;6670;6587.6;6667.20
6640.87;6651.4513;6628.26;6670.72;6670;6588.9;6667.20
6640.87;6651.4513;6628.26;6670.72;6670;6592.6;6667.20
6640.87;6651.4513;6613.63;6670.72;6670;6598.0;6667.20
6640.87;6651.4513;6628.26;6670.72;6659.49;6597.8;6660.00
6640.87;6671.2938;6613.63;6670.72;6659.49;6598.0;6660.00
6640.87;6671.2938;6613.63;6670.72;6659.49;6594.1;6660.00
6640.87;6671.2938;6628.26;6670.72;6659.49;6598.9;6660.00
6640.87;6671.2938;6618.84;6670.72;6659.49;6598.8;6660.00
6644.60;6671.2938;6618.84;6670.72;6659.49;6598.7;6672.66
6644.60;6671.2938;6641.03;6670.72;6659.49;6599.7;6672.66
6644.60;6683.2763;6618.84;6670.72;6669.03;6599.7;6672.66
6644.60;6683.2763;6651.96;6670.72;6669.03;6600.0;6672.66
6644.60;6683.2763;6618.84;6670.72;6669.03;6599.9;6672.66
6644.60;6683.2763;6641.36;6670.72;6669.03;6600.0;6672.66
6644.60;6683.2763;6641.36;6758.94;6669.03;6604.0;6680.00
6644.60;6683.2763;6651.96;6758.94;6669.03;6614.7;6680.00
6644.60;6694.8588;6651.96;6758.94;6669.03;6614.2;6680.00
6644.60;6694.8588;6641.36;6758.94;6676.99;6620.0;6680.00
6644.60;6694.8588;6641.36;6758.94;6676.99;6623.2;6691.00
6644.60;6694.8588;6641.36;6758.94;6676.99;6626.0;6691.00
6644.60;6694.8588;6663.37;6758.94;6676.99;6625.9;6691.00
6644.60;6694.8588;6612.99;6758.94;6676.99;6620.0;6691.00
6644.60;6711.47;6663.37;6758.94;6676.99;6617.9;6691.00
6644.60;6711.47;6612.99;6758.94;6689;6619.8;6691.00
6644.60;6711.47;6641.36;6758.94;6689;6620.0;6691.00
6644.60;6711.47;6663.37;6758.94;6689;6616.0;6691.00
6644.60;6711.47;6612.99;6758.94;6689;6616.9;6691.00
6644.60;6711.47;6684.08;6758.94;6689;6616.1;6691.00
6644.60;6716.4913;6684.08;6758.94;6689;6611.9;6714.10
6644.60;6716.4913;6684.08;6758.94;6689;6614.0;6714.10
6644.60;6716.4913;6681.88;6758.94;6698.91;6599.4;6714.10
6644.60;6716.4913;6663.37;6758.94;6698.91;6589.1;6714.10
6644.60;6716.4913;6684.08;6758.94;6698.91;6589.3;6714.10
6644.60;6716.4913;6681.88;6758.94;6698.91;6558.8;6718.49
6644.60;6716.9775;6681.88;6758.94;6698.91;6569.9;6718.49
6644.60;6716.9775;6651.96;6758.94;6698.91;6560.8;6718.49
6644.60;6716.9775;6681.88;6758.94;6698.91;6567.1;6718.49
6644.60;6716.9775;6684.08;6758.94;6716.22;6570.0;6718.49
6644.60;6716.9775;6684.08;6758.94;6716.22;6571.6;6718.49
6749.19;6716.9775;6684.08;6758.94;6716.22;6575.4;6718.49
6749.19;6716.9775;6684.08;6758.94;6716.22;6571.9;6718.49
6749.19;6716.9775;6684.08;6758.94;6716.22;6575.4;6718.49
6749.19;6705.6463;6677.31;6758.94;6716.22;6575.7;6718.49
6749.19;6705.6463;6684.08;6758.94;6716.22;6575.4;6718.49
6749.19;6705.6463;6677.31;6758.94;6700.1;6576.0;6700.00
6749.19;6705.6463;6677.31;6758.94;6700.1;6579.5;6700.00
6749.19;6705.6463;6677.31;6758.94;6700.1;6579.6;6700.00
6749.19;6705.6463;6658.16;6758.94;6700.1;6592.3;6700.00
6749.19;6697.1788;6658.16;6758.94;6700.1;6584.6;6711.04
6749.19;6697.1788;6658.16;6758.94;6700.1;6588.1;6711.04
6749.19;6697.1788;6658.16;6758.94;6700.1;6589.3;6711.04
6749.19;6697.1788;6657.39;6758.94;6700;6589.3;6711.04
6749.19;6697.1788;6613.63;6758.94;6700;6590.4;6711.04
6749.19;6697.1788;6677.31;6758.94;6700;6590.4;6711.04
6749.19;6704.8088;6664.45;6758.94;6700;6591.0;6718.48
6749.19;6704.8088;6682.79;6758.94;6700;6596.6;6718.48
6749.19;6704.8088;6664.45;6758.94;6700;6599.0;6718.48
6749.19;6704.8088;6682.79;6758.94;6700;6598.9;6718.48
6749.19;6704.8088;6677.31;6758.94;6700;6600.0;6718.48
6749.19;6704.8088;6664.45;6758.94;6715;6600.0;6718.48
6749.19;6704.8088;6664.45;6758.94;6715;6603.1;6718.49
6749.19;6704.8088;6664.45;6770.00;6715;6602.2;6718.49
6749.19;6705.9088;6664.45;6770.00;6715;6616.9;6718.49
6749.19;6705.9088;6664.45;6770.00;6715;6607.7;6718.49
6749.19;6705.9088;6664.45;6770.00;6715;6609.8;6718.49
6749.19;6705.9088;6664.45;6770.00;6715;6600.2;6718.49
6749.19;6705.9088;6664.45;6770.00;6715;6600.0;6719.73
6749.19;6705.9088;6664.45;6770.00;6714.69;6597.8;6719.73
6749.19;6705.9088;6657.39;6770.00;6714.69;6591.2;6719.73
6749.19;6707.8388;6671.53;6770.00;6714.69;6592.0;6719.73
6749.19;6707.8388;6671.53;6770.00;6714.69;6597.0;6719.73
6749.19;6707.8388;6674.39;6770.00;6714.69;6587.1;6719.73
6749.19;6707.8388;6674.39;6770.00;6714.69;6581.0;6719.73
6749.19;6707.8388;6671.53;6770.00;6714.69;6580.5;6719.73
6726.57;6707.8388;6671.53;6749.63;6714.69;6568.5;6719.73
6726.57;6707.8388;6671.53;6749.63;6699.33;6565.3;6719.73
6726.57;6707.8388;6674.39;6749.63;6699.33;6567.6;6719.73
6726.57;6699.31;6674.39;6749.63;6699.33;6555.0;6709.79
6726.57;6699.31;6674.39;6749.63;6699.33;6549.9;6709.79
6726.57;6699.31;6674.39;6749.63;6699.33;6554.6;6709.79
6726.57;6699.31;6658.16;6749.63;6699.33;6553.9;6709.79
6726.57;6699.31;6674.39;6749.63;6699.33;6551.3;6709.79
6726.57;6699.31;6658.16;6761.90;6699.33;6555.9;6709.79
6726.57;6686.3975;6674.39;6761.90;6689;6566.9;6691.78
6726.57;6686.3975;6674.39;6761.90;6689;6571.1;6691.78
6726.57;6686.3975;6674.39;6761.90;6689;6570.0;6691.78
6726.57;6686.3975;6638.25;6761.90;6689;6565.3;6691.78
6726.57;6686.3975;6638.25;6761.90;6689;6575.0;6691.78
6726.57;6686.3975;6638.25;6761.90;6689;6576.3;6691.78
6726.57;6686.3975;6674.39;6761.90;6689;6577.2;6670.12
6726.57;6686.3975;6638.25;6761.90;6689;6565.0;6670.12
6726.57;6686.3975;6638.25;6761.90;6689;6569.6;6670.12
6726.57;6685.2863;6638.25;6761.90;6670;6556.6;6670.12
6726.57;6685.2863;6674.39;6761.90;6670;6552.9;6670.12
6726.57;6685.2863;6674.39;6761.90;6670;6551.7;6670.12
6726.57;6685.2863;6674.39;6761.90;6670;6551.5;6670.12
6726.57;6685.2863;6674.39;6761.90;6670;6560.0;6685.01
6726.57;6685.2863;6674.39;6761.90;6670;6560.0;6685.01
6726.57;6673.4138;6674.39;6761.90;6670;6561.9;6685.01
6726.57;6673.4138;6644.64;6761.90;6670;6561.9;6685.01
6726.57;6673.4138;6638.25;6761.90;6670.22;6561.9;6685.01
6726.57;6673.4138;6644.64;6761.90;6670.22;6565.2;6685.01
6726.57;6673.4138;6638.25;6761.90;6670.22;6567.7;6689.91
6726.57;6673.4138;6644.64;6761.90;6670.22;6571.4;6689.91
6726.57;6673.4138;6638.25;6761.90;6670.22;6571.3;6689.91
6726.57;6673.4138;6638.25;6761.90;6670.22;6574.0;6689.91
6726.57;6677.53;6674.39;6761.90;6670.22;6574.0;6689.91
6726.57;6677.53;6635.52;6761.90;6689.1;6576.0;6698.80
6726.57;6677.53;6674.39;6761.90;6689.1;6579.8;6698.80
6726.57;6677.53;6635.52;6761.90;6689.1;6576.0;6698.80
6683.60;6677.53;6674.39;6761.90;6689.1;6577.6;6698.80
6683.60;6677.53;6635.52;6761.90;6689.1;6575.0;6698.80
6683.60;6682.785;6674.39;6761.90;6689.1;6577.4;6696.11
6683.60;6682.785;6639.08;6761.90;6689.1;6586.9;6696.11
6683.60;6682.785;6639.08;6761.90;6697;6590.0;6696.11
6683.60;6682.785;6644.64;6761.90;6697;6593.7;6696.11
6683.60;6682.785;6639.08;6761.90;6697;6597.9;6696.11
6683.60;6682.785;6639.08;6761.90;6697;6598.0;6696.97
6683.60;6682.785;6639.08;6761.90;6697;6600.0;6696.97
6683.60;6684.7525;6639.08;6761.90;6697;6619.9;6696.97
6683.60;6684.7525;6647.91;6761.90;6697;6618.7;6696.97
6683.60;6684.7525;6639.08;6761.90;6697;6619.9;6696.97
6683.60;6684.7525;6639.08;6761.90;6697;6625.9;6696.97
6683.60;6684.7525;6647.91;6761.90;6697;6624.3;6696.97
6683.60;6684.7525;6639.08;6761.90;6697;6620.3;6696.97
6683.60;6692.015;6639.08;6732.50;6697;6602.6;6696.97
6683.60;6692.015;6652.7;6732.50;6697;6602.6;6696.97
6683.60;6692.015;6652.7;6732.50;6698;6608.6;6696.97
6683.60;6692.015;6652.7;6732.50;6698;6606.6;6696.97
6683.60;6692.015;6652.7;6732.50;6698;6610.1;6696.97
6683.60;6686.9688;6652.17;6732.50;6698;6610.1;6696.97
6683.60;6686.9688;6652.17;6732.50;6698;6610.1;6700.01
6683.60;6686.9688;6635.52;6732.50;6698;6610.0;6700.01
6683.60;6686.9688;6652.17;6732.50;6728.17;6612.8;6700.01
6683.60;6686.9688;6667.52;6732.50;6728.17;6611.1;6700.01
6683.60;6686.9688;6660.13;6732.50;6728.17;6611.2;6700.01
6683.60;6697.5775;6660.13;6732.50;6728.17;6611.1;6700.01
6683.60;6697.5775;6660.13;6732.50;6728.17;6611.0;6719.53
6683.60;6697.5775;6652.17;6732.50;6728.17;6611.0;6719.53
6683.60;6697.5775;6660.13;6732.50;6728.17;6611.0;6719.53
6683.60;6697.5775;6667.52;6732.50;6691.08;6611.0;6719.53
6743.74;6697.5775;6668.23;6732.50;6691.08;6611.1;6719.53
6743.74;6697.5775;6667.52;6732.50;6691.08;6611.1;6690.01
6743.74;6697.5775;6668.23;6732.50;6691.08;6611.1;6690.01
6743.74;6700.0063;6668.23;6732.50;6691.08;6611.0;6690.01
6743.74;6700.0063;6667.52;6732.50;6691.08;6611.0;6690.01
6743.74;6700.0063;6667.52;6732.50;6691.08;6611.2;6690.01
6743.74;6700.0063;6668.23;6732.50;6691.08;6605.0;6690.01
6743.74;6700.0063;6660.13;6732.50;6700.01;6611.0;6690.01
6743.74;6700.0063;6668.23;6732.50;6700.01;6611.1;6690.01
6743.74;6695.745;6660.13;6732.50;6700.01;6611.1;6690.01
6743.74;6695.745;6668.23;6732.50;6700.01;6609.7;6690.01
6743.74;6695.745;6668.23;6732.50;6700.01;6609.4;6690.01
6743.74;6695.745;6670.03;6732.50;6700.01;6609.6;6690.01
6743.74;6695.745;6668.23;6732.50;6700.01;6609.5;6724.15
6743.74;6695.745;6670.03;6732.50;6700.01;6609.6;6724.15
6743.74;6695.745;6668.23;6732.50;6703.36;6609.6;6724.15
6743.74;6695.745;6668.23;6732.50;6703.36;6609.6;6724.15
6743.74;6697.1613;6668.23;6732.50;6703.36;6609.6;6724.15
6743.74;6697.1613;6670.03;6732.50;6703.36;6609.6;6724.15
6743.74;6697.1613;6666.51;6732.50;6703.36;6609.5;6724.15
6743.74;6697.1613;6666.51;6732.50;6703.36;6606.6;6724.15
6743.74;6697.1613;6666.51;6732.50;6694.46;6609.5;6724.15
6743.74;6697.1613;6666.51;6732.50;6694.46;6610.0;6724.15
6743.74;6700.1075;6666.51;6732.50;6694.46;6611.2;6717.96
6743.74;6700.1075;6666.51;6732.50;6694.46;6619.0;6717.96
6743.74;6700.1075;6669.65;6732.50;6694.46;6620.0;6717.96
6743.74;6716.7388;6668.28;6732.50;6714.6;6641.2;6716.98
6743.74;6716.7388;6669.65;6732.50;6714.6;6643.0;6716.98
6743.74;6716.7388;6666.51;6732.50;6714.6;6648.9;6716.98
6743.74;6716.7388;6666.51;6732.50;6714.6;6649.0;6716.98
6719.43;6730.8475;6668.25;6732.50;6714.6;6649.9;6716.98
6719.43;6730.8475;6669.65;6732.50;6727;6649.9;6716.98
6719.43;6730.8475;6669.65;6732.50;6727;6649.8;6716.98
6719.43;6730.8475;6669.65;6732.50;6727;6650.0;6728.00
6719.43;6730.8475;6704.42;6732.50;6727;6650.0;6728.00
6719.43;6739.9963;6668.28;6732.50;6727;6650.0;6728.00
6719.43;6739.9963;6704.42;6732.50;6727;6671.9;6728.00
6719.43;6739.9963;6683.69;6732.50;6735.11;6678.1;6728.00
6719.43;6739.9963;6668.28;6732.50;6735.11;6679.9;6728.00
6719.43;6739.9963;6704.42;6732.50;6735.11;6678.1;6728.00
6719.43;6739.9963;6704.42;6732.50;6762;6663.7;6775.75
6719.43;6770.37;6683.69;6732.50;6762;6661.9;6775.75
6719.43;6770.37;6713.71;6732.50;6762;6661.9;6775.75
6719.43;6761.1388;6713.71;6732.50;6762;6661.8;6775.75
6719.43;6761.1388;6713.71;6732.50;6762;6659.2;6775.75
6719.43;6761.1388;6732.98;6732.50;6762;6659.0;6775.75
6719.43;6761.1388;6713.71;6732.50;6762;6656.3;6775.75
6719.43;6761.1388;6713.71;6732.50;6746.64;6652.7;6746.64
6811.19;6761.1388;6732.17;6732.50;6746.64;6645.5;6746.64
6811.19;6754.2613;6726.33;6732.50;6746.64;6641.3;6746.64
6811.19;6754.2613;6732.17;6732.50;6746.64;6641.4;6746.64
6811.19;6754.2613;6726.33;6732.50;6746.64;6640.0;6746.64
6811.19;6754.2613;6726.33;6732.50;6746.64;6641.4;6740.00
6811.19;6754.2613;6726.33;6732.50;6746.64;6648.3;6740.00
6811.19;6754.2613;6732.17;6732.50;6730.01;6654.7;6740.00
6811.19;6754.2613;6726.33;6831.24;6730.01;6649.7;6740.00
6811.19;6754.2613;6717.23;6831.24;6730.01;6652.9;6740.00
6811.19;6748.605;6717.23;6831.24;6730.01;6648.7;6740.00
6811.19;6748.605;6732.75;6831.24;6730.01;6640.7;6740.00
6811.19;6748.605;6732.75;6831.24;6730.01;6631.4;6740.00
6811.19;6748.605;6717.23;6831.24;6730.01;6620.0;6740.00
6811.19;6748.605;6731.41;6831.24;6730.01;6617.0;6740.00
6811.19;6748.605;6717.23;6831.24;6730.01;6625.7;6740.00
6811.19;6750.0725;6717.23;6831.24;6730.01;6630.9;6749.34
6811.19;6750.0725;6717.22;6831.24;6730.01;6640.7;6749.34
6811.19;6745.2725;6717.22;6831.24;6730.01;6648.8;6749.34
6811.19;6745.2725;6717.23;6831.24;6730.01;6649.0;6749.34
6811.19;6745.2725;6717.23;6831.24;6730.01;6649.0;6749.34
6811.19;6745.2725;6717.22;6831.24;6720.41;6648.9;6725.10
6811.19;6742.8288;6711.71;6831.24;6720.41;6634.9;6725.10
6811.19;6742.8288;6711.71;6831.24;6720.41;6634.4;6725.10
6811.19;6742.8288;6732.75;6831.24;6720.41;6635.0;6725.10
6811.19;6742.8288;6717.06;6831.24;6720.41;6634.9;6725.10
6811.19;6742.8288;6711.71;6831.24;6720.41;6633.0;6717.00
6811.19;6742.8288;6726.33;6831.24;6720.41;6625.0;6717.00
6811.19;6727.2038;6712.07;6831.24;6725.36;6629.7;6717.00
6811.19;6727.2038;6699.95;6831.24;6725.36;6629.7;6717.00
6811.19;6727.2038;6726.33;6831.24;6725.36;6624.2;6717.00
6811.19;6727.2038;6726.33;6831.24;6725.36;6616.2;6717.00
6811.19;6727.2038;6726.33;6831.24;6725.36;6621.8;6739.00
6733.89;6727.2038;6717.06;6831.24;6725.36;6620.9;6739.00
6733.89;6727.2038;6717.22;6831.24;6725.36;6620.0;6739.00
6733.89;6727.2038;6717.22;6831.24;6725.36;6621.1;6739.00
6733.89;6726.8338;6717.22;6831.24;6730.33;6621.1;6739.00
6733.89;6726.8338;6717.06;6831.24;6730.33;6621.1;6739.00
6733.89;6726.8338;6717.22;6831.24;6730.33;6622.9;6726.95
6733.89;6726.8338;6699.95;6831.24;6730.33;6615.5;6726.95
6733.89;6726.8338;6715.26;6831.24;6730.33;6619.4;6726.95
6733.89;6726.8338;6717.22;6831.24;6730.33;6615.6;6726.95
6733.89;6726.8338;6687.51;6831.24;6730.33;6609.3;6726.95
6733.89;6726.8338;6687.51;6831.24;6730.33;6605.0;6726.95
6733.89;6722.035;6699.95;6831.24;6698.67;6609.9;6704.20
6733.89;6722.035;6687.51;6831.24;6698.67;6605.8;6704.20
6733.89;6722.035;6687.51;6831.24;6698.67;6609.2;6704.20
6733.89;6722.035;6687.51;6831.24;6698.67;6608.0;6704.20
6733.89;6720.7025;6690.45;6831.24;6698.67;6604.9;6718.75
6733.89;6720.7025;6690.45;6831.24;6698.67;6609.2;6718.75
6733.89;6720.7025;6690.45;6831.24;6701.82;6609.9;6718.75
6733.89;6720.7025;6690.45;6831.24;6701.82;6616.7;6718.75
6733.89;6720.7025;6690.45;6831.24;6701.82;6615.6;6718.75
6733.89;6720.7025;6690.25;6831.24;6701.82;6620.0;6718.75
6733.89;6725.3163;6687.51;6831.24;6701.82;6605.7;6718.75
6733.89;6725.3163;6687.51;6831.24;6701.82;6608.5;6718.75
6733.89;6725.3163;6690.25;6831.24;6702.23;6606.9;6718.75
6733.89;6725.3163;6690.25;6831.24;6702.23;6595.2;6702.23
6733.89;6725.3163;6690.25;6831.24;6702.23;6595.3;6702.23
6733.89;6725.3163;6690.44;6831.24;6702.23;6589.1;6702.23
6733.89;6718.575;6690.44;6831.24;6702.23;6578.6;6702.23
6733.89;6718.575;6690.44;6831.24;6702.23;6584.0;6702.23
6733.89;6708.6;6690.44;6831.24;6702.23;6567.1;6702.23
6733.89;6708.6;6690.44;6831.24;6701;6562.6;6702.23
6664.57;6708.6;6690.44;6831.24;6701;6566.6;6702.23
6664.57;6708.6;6690.25;6831.24;6701;6566.5;6702.23
6664.57;6695.83;6687.51;6831.24;6701;6565.7;6702.23
6664.57;6695.83;6687.51;6831.24;6701;6565.4;6694.60
6664.57;6695.83;6670.48;6831.24;6701;6578.8;6694.60
6664.57;6695.83;6687.51;6831.24;6701;6579.9;6694.60
6664.57;6695.83;6687.51;6831.24;6680.75;6577.3;6694.60
6664.57;6695.83;6653.38;6831.24;6680.75;6583.3;6694.60
6664.57;6683.1675;6653.38;6761.32;6680.75;6578.8;6694.60
6664.57;6683.1675;6653.38;6761.32;6680.75;6578.0;6694.60
6664.57;6683.1675;6653.38;6761.32;6680.75;6577.2;6694.60
6664.57;6683.1675;6653.38;6761.32;6680.75;6579.9;6694.60
6664.57;6683.1675;6653.38;6761.32;6680.75;6588.0;6694.60
6664.57;6683.1675;6653.38;6761.32;6656;6590.0;6651.97
6664.57;6673.045;6653.38;6761.32;6656;6596.5;6651.97
6664.57;6673.045;6653.38;6761.32;6656;6596.3;6651.97
6664.57;6673.045;6645.87;6761.32;6656;6594.4;6651.97
6664.57;6673.045;6645.87;6761.32;6656;6594.5;6651.97
6664.57;6673.045;6653.38;6761.32;6656;6594.5;6672.06
6664.57;6673.045;6653.38;6761.32;6656;6594.5;6672.06
6664.57;6679.1575;6653.38;6761.32;6664.19;6597.0;6672.06
6664.57;6679.1575;6645.82;6761.32;6664.19;6599.9;6672.06
6664.57;6679.1575;6645.82;6761.32;6664.19;6602.5;6672.06
6664.57;6679.1575;6645.87;6761.32;6664.19;6612.7;6672.06
6664.57;6679.1575;6645.87;6761.32;6664.19;6616.5;6688.94
6664.57;6679.1575;6645.82;6761.32;6664.19;6610.0;6688.94
6664.57;6680.9463;6645.81;6761.32;6660.09;6610.0;6688.94
6664.57;6680.9463;6645.81;6761.32;6660.09;6607.1;6688.94
6664.57;6680.9463;6645.81;6761.32;6660.09;6607.0;6699.94
6664.57;6680.9463;6645.81;6761.32;6660.09;6607.0;6699.94
6664.57;6680.9463;6645.81;6761.32;6660.09;6608.1;6699.94
6669.53;6680.9463;6645.81;6761.32;6660.09;6608.1;6699.94
6669.53;6684.9088;6658.61;6761.32;6690;6608.1;6699.94
6669.53;6684.9088;6653.22;6761.32;6690;6608.5;6698.67
6669.53;6684.9088;6658.61;6761.32;6690;6604.9;6698.67
6669.53;6684.9088;6653.22;6761.32;6690;6606.7;6698.67
6669.53;6684.9088;6658.61;6761.32;6690;6605.1;6698.67
6669.53;6684.9088;6658.61;6761.32;6690;6604.8;6698.67
6669.53;6682.0338;6653.22;6761.32;6690;6604.8;6688.00
6669.53;6682.0338;6658.61;6761.32;6670.13;6604.9;6688.00
6669.53;6682.0338;6658.61;6761.32;6670.13;6604.9;6688.00
6669.53;6682.0338;6665.6;6761.32;6670.13;6604.9;6688.00
6669.53;6682.0338;6665.6;6761.32;6670.13;6605.1;6688.00
6669.53;6682.0338;6658.61;6761.32;6670.13;6606.7;6688.00
6669.53;6682.0338;6658.61;6761.32;6670.13;6606.6;6685.98
6669.53;6682.0338;6658.04;6761.32;6670.13;6606.7;6685.98
6669.53;6683;6658.04;6761.32;6670.01;6605.2;6685.98
6669.53;6683;6658.04;6761.32;6670.01;6605.1;6685.98
6669.53;6683;6658.04;6761.32;6670.01;6605.0;6685.98
6669.53;6683;6658.04;6761.32;6670.01;6604.9;6670.01
6669.53;6683;6658.04;6761.32;6670.01;6604.3;6670.01
6669.53;6685.4113;6658.22;6761.32;6670.01;6603.95941291;6670.01
6669.53;6685.4113;6658.22;6761.32;6670;6603.95941291;6670.01
6669.53;6685.4113;6658.22;6761.32;6670;6603.9;6670.01
6669.53;6685.4113;6658.22;6761.32;6670;6603.95941291;6686.00
6669.53;6685.4113;6658.22;6761.32;6670;6604.0;6686.00
6669.53;6685.4113;6658.22;6761.32;6670;6600.1;6686.00
6669.53;6682.4713;6658.22;6761.32;6670;6600.1;6686.00
6669.53;6682.4713;6658.22;6761.32;6670;6599.0;6686.00
6669.53;6682.4713;6659.72;6761.32;6684.84;6589.0;6670.00
6669.53;6682.4713;6658.51;6761.32;6684.84;6595.9;6670.00
6669.53;6682.4713;6658.51;6761.32;6684.84;6594.7;6670.00
6684.51;6682.4713;6658.51;6761.32;6684.84;6591.4;6670.00
6684.51;6680.7263;6658.22;6761.32;6684.84;6594.9;6670.00
6684.51;6680.7263;6658.09;6761.32;6684.84;6595.0;6685.00
6684.51;6680.7263;6658.09;6761.32;6670;6595.5;6685.00
6684.51;6680.7263;6658.09;6761.32;6670;6595.6;6685.00
6684.51;6680.7263;6658.09;6724.50;6670;6595.5;6685.00
6684.51;6680.7263;6658.09;6724.50;6670;6592.8;6670.82
6684.51;6671.3563;6658.09;6724.50;6670;6591.8;6670.82
6684.51;6671.3563;6657.63;6724.50;6670;6581.6;6670.82
6684.51;6671.3563;6651.86;6724.50;6651.98;6584.9;6670.82
6684.51;6671.3563;6651.86;6724.50;6651.98;6584.2;6670.82
6684.51;6671.3563;6651.86;6724.50;6651.98;6580.0;6660.55
6684.51;6671.3563;6657.63;6724.50;6651.98;6552.8;6660.55
6684.51;6662.1113;6651.86;6724.50;6651.98;6559.8;6660.55
6684.51;6662.1113;6651.86;6724.50;6650;6534.95812498;6660.55
6684.51;6662.1113;6651.95;6724.50;6650;6529.82965088;6670.51
6684.51;6662.1113;6651.95;6724.50;6650;6515.5;6670.51
6684.51;6662.1113;6651.86;6724.50;6650;6515.0;6670.51
6684.51;6662.1113;6640.01;6724.50;6650;6498.2;6670.51
6684.51;6625.8338;6600.36;6724.50;6650;6498.6;6670.51
6684.51;6625.8338;6640.01;6724.50;6612;6495.5;6670.51
6684.51;6625.8338;6600.36;6724.50;6612;6497.6;6670.51
6684.51;6625.8338;6640.01;6724.50;6612;6491.8;6670.51
6684.51;6597.4938;6640.01;6724.50;6612;6498.0;6670.51
6684.51;6597.4938;6652.08;6724.50;6612;6469.9;6670.51
6684.51;6597.4938;6565.73;6724.50;6612;6469.8;6670.51
6685.57;6597.4938;6652.08;6724.50;6586.13;6483.4;6670.51
6685.57;6584.6063;6565.73;6724.50;6586.13;6480.8;6586.13
6685.57;6584.6063;6565.73;6724.50;6586.13;6480.9;6586.13
6685.57;6584.6063;6640.01;6724.50;6586.13;6496.6;6586.13
6685.57;6584.6063;6640.01;6724.50;6586.13;6496.8442379;6586.13
6685.57;6584.6063;6640.01;6724.50;6586.13;6496.7;6586.13
6685.57;6584.6063;6640.01;6724.50;6587;6506.98462988;6604.00
6685.57;6584.6063;6600.36;6724.50;6587;6503.9;6604.00
6685.57;6574.9713;6600.36;6724.50;6587;6510.0;6604.00
6685.57;6574.9713;6600.36;6724.50;6587;6506.1;6604.00
6685.57;6574.9713;6547.37;6724.50;6587;6519.4;6604.00
6685.57;6574.9713;6548.08;6724.50;6587;6517.7;6605.89
6685.57;6574.9713;6548.08;6610.00;6587;6522.1;6605.89
6685.57;6574.9713;6548.08;6610.00;6586.13;6523.0;6605.89
6685.57;6584.1713;6547.37;6610.00;6586.13;6527.0;6605.89
6685.57;6584.1713;6548.08;6610.00;6586.13;6531.2;6605.89
6685.57;6584.1713;6548.08;6610.00;6586.13;6532.8;6605.89
6685.57;6584.1713;6565.73;6610.00;6586.13;6532.9;6605.89
6685.57;6584.1713;6565.73;6610.00;6586.13;6544.4;6605.89
6685.57;6584.1713;6565.73;6610.00;6586.13;6549.6;6605.89
6685.57;6607.0263;6551.83;6610.00;6615;6545.0;6605.89
6685.57;6607.0263;6551.83;6610.00;6615;6548.2;6605.89
6685.57;6607.0263;6551.83;6610.00;6615;6545.0;6604.48
6685.57;6607.0263;6551.83;6610.00;6615;6535.0;6604.48
6685.57;6607.0263;6651.87;6610.00;6615;6534.5;6604.48
6685.57;6609.0238;6551.83;6610.00;6615;6533.0;6604.48
6685.57;6609.0238;6551.83;6610.00;6615;6520.1;6604.48
6685.57;6609.0238;6551.83;6610.00;6615;6522.5;6642.95
6685.57;6609.0238;6551.83;6610.00;6615;6532.0;6642.95
6685.57;6609.0238;6651.87;6610.00;6615;6534.0;6642.95
6685.57;6609.0238;6551.83;6610.00;6615;6520.0;6642.95
6560.13;6609.0238;6591.12;6610.00;6615;6536.7;6642.95
6560.13;6609.0238;6582.43;6610.00;6615;6523.1;6626.90
6560.13;6615.2588;6582.43;6610.00;6615.02;6533.5;6626.90
6560.13;6615.2588;6582.43;6610.00;6615.02;6541.8;6626.90
6560.13;6615.2588;6591.12;6610.00;6615.02;6532.3;6626.90
6560.13;6615.2588;6591.12;6610.00;6615.02;6530.2;6626.90
6560.13;6615.2588;6591.12;6610.00;6615.02;6539.0;6626.90
6560.13;6615.2588;6591.12;6610.00;6615.02;6540.0;6626.90
6560.13;6613.0975;6591.12;6661.20;6615.02;6548.5;6626.90
6560.13;6613.0975;6582.43;6661.20;6615.02;6546.6;6626.90
6560.13;6613.0975;6591.12;6661.20;6615.02;6540.4;6626.90
6560.13;6613.0975;6591.12;6661.20;6615.02;6542.0;6626.90
6560.13;6613.0975;6591.12;6661.20;6615.02;6544.3;6616.04
6560.13;6613.0975;6564.36;6661.20;6615.02;6544.9;6616.04
6560.13;6613.0975;6581.09;6661.20;6615.02;6554.6;6616.04
6560.13;6618.4913;6564.36;6661.20;6615.02;6556.0;6616.04
6560.13;6618.4913;6584.85;6661.20;6615.02;6555.2;6616.04
6560.13;6618.4913;6584.85;6661.20;6615.02;6555.7;6616.04
6560.13;6618.4913;6584.85;6661.20;6626.91;6556.2;6616.04
6560.13;6618.4913;6584.85;6661.20;6626.91;6555.4;6626.94
6560.13;6618.4913;6591.5;6661.20;6626.91;6557.7;6626.94
6560.13;6618.4913;6584.85;6661.20;6626.91;6557.8;6626.94
6560.13;6618.4913;6591.5;6661.20;6626.91;6555.0;6626.94
6560.13;6624.0413;6591.5;6661.20;6626.91;6555.0;6626.94
6560.13;6624.0413;6591.5;6661.20;6626.91;6554.9;6626.94
6560.13;6624.0413;6584.85;6661.20;6626.91;6551.9;6626.94
6560.13;6624.0413;6591.5;6661.20;6627;6551.5;6626.94
6560.13;6624.0413;6591.5;6661.20;6627;6551.3;6626.94
6560.13;6624.0413;6591.5;6661.20;6627;6551.2;6626.94
6560.13;6627.8013;6600.46;6661.20;6627;6550.2;6626.94
6560.13;6627.8013;6600.46;6661.20;6627;6554.0;6649.97
6560.13;6627.8013;6591.5;6661.20;6627;6554.6;6649.97
6560.13;6627.8013;6591.5;6661.20;6627;6555.8;6649.97
6560.13;6627.8013;6600.46;6661.20;6627;6553.1;6649.97
6624.74;6627.8013;6600.46;6661.20;6644.01;6557.8;6649.97
6624.74;6627.8013;6600.46;6661.20;6644.01;6559.7;6649.97
6624.74;6627.8013;6600.69;6661.20;6644.01;6560.0;6644.10
6624.74;6628.04;6599.34;6661.20;6644.01;6561.7;6644.10
6624.74;6628.04;6599.34;6661.20;6644.01;6558.3;6644.10
6624.74;6628.04;6599.34;6661.20;6644.01;6561.4;6644.10
6624.74;6628.04;6600.69;6661.20;6644.01;6560.7;6644.10
6624.74;6628.04;6600.42;6661.20;6644.01;6556.0;6644.10
6624.74;6628.04;6600.46;6661.20;6646.01;6562.0;6646.00
6624.74;6625.05;6584.58;6661.20;6646.01;6560.1;6646.00
6624.74;6625.05;6600.91;6661.20;6646.01;6556.1;6646.00
6624.74;6625.05;6584.58;6661.20;6646.01;6555.1;6646.00
6624.74;6625.05;6584.58;6661.20;6646.01;6555.1;6646.00
6624.74;6625.05;6584.58;6661.20;6646.01;6555.0;6646.00
6624.74;6625.05;6584.58;6661.20;6646.01;6551.5;6649.97
6624.74;6625.05;6600.69;6661.20;6646.01;6547.1;6649.97
6624.74;6623.9475;6600.91;6661.20;6646.01;6546.0;6649.97
6624.74;6623.9475;6601.2;6661.20;6646.01;6540.6;6649.97
6624.74;6623.9475;6601.2;6661.20;6646.01;6540.0;6649.97
6624.74;6623.9475;6601.2;6661.20;6646.01;6540.1;6649.97
6624.74;6623.9475;6600.91;6661.20;6646.01;6538.2;6649.97
6624.74;6623.9475;6600.91;6661.20;6646.01;6529.1;6649.97
6624.74;6623.9475;6600.91;6661.20;6646.01;6527.1;6649.97
6624.74;6611.39;6601.2;6661.20;6646.01;6518.3;6649.97
6624.74;6611.39;6600.69;6661.20;6647.01;6520.2;6649.97
6624.74;6611.39;6601.2;6661.20;6647.01;6522.1;6649.97
6624.74;6611.39;6600.69;6661.20;6647.01;6522.5;6626.03
6624.74;6611.39;6600.69;6661.20;6647.01;6524.9;6626.03
6624.74;6611.39;6600.69;6661.20;6647.01;6525.0;6626.03
6624.74;6611.39;6589.4;6661.20;6647.01;6521.8;6626.03
6624.74;6611.39;6576.08;6661.20;6647.01;6523.9;6626.03
6624.74;6604.7238;6589.4;6661.20;6617.37;6523.9;6617.84
6624.74;6604.7238;6589.4;6661.20;6617.37;6521.2;6617.84
6624.74;6604.7238;6576.08;6661.20;6617.37;6527.6;6617.84
6624.74;6604.7238;6576.08;6661.20;6617.37;6528.0;6617.84
6553.77;6604.7238;6576.08;6661.20;6617.37;6528.0;6617.84
6553.77;6604.7238;6576.08;6661.20;6617.37;6525.0;6617.84
6553.77;6599.3113;6589.4;6661.20;6617.37;6536.2;6619.22
6553.77;6599.3113;6576.08;6633.62;6617.37;6527.2;6619.22
6553.77;6599.3113;6576.08;6633.62;6620;6531.5;6619.22
6553.77;6599.3113;6576.08;6633.62;6620;6527.0;6619.22
6553.77;6599.3113;6589.4;6627.80;6620;6527.0;6619.22
6553.77;6599.3113;6576.08;6627.80;6620;6527.0;6619.22
6553.77;6599.3113;6576.08;6627.80;6620;6525.5;6639.33
6553.77;6598.9838;6576.08;6627.80;6620;6522.7;6639.33
6553.77;6598.9838;6577.06;6627.80;6620;6518.5;6639.33
6553.77;6598.9838;6589.4;6627.80;6620;6518.5;6639.33
6553.77;6598.9838;6577.06;6627.80;6618.04;6517.6;6639.33
6553.77;6598.9838;6589.4;6627.80;6618.04;6504.4;6639.33
6553.77;6598.9838;6589.4;6627.80;6618.04;6509.1;6623.00
6553.77;6598.9838;6577.06;6627.80;6618.04;6506.6;6623.00
6553.77;6598.9838;6577.06;6627.80;6618.04;6506.1;6623.00
6553.77;6593.0638;6601.2;6627.80;6618.04;6500.4;6623.00
6553.77;6593.0638;6601.2;6627.80;6618.04;6494.5;6623.00
6553.77;6593.0638;6576.02;6627.80;6618.04;6497.4;6623.00
6553.77;6593.0638;6576.02;6627.80;6623.01;6489.5;6620.44
6553.77;6593.0638;6576.02;6627.80;6623.01;6489.6;6620.44
6553.77;6593.0638;6576.02;6627.80;6623.01;6480.1;6620.44
6553.77;6582.8725;6576.08;6627.80;6623.01;6464.9;6620.44
6553.77;6582.8725;6576.08;6627.80;6623.01;6470.0;6620.44
6553.77;6582.8725;6577.06;6627.80;6623.01;6461.0;6620.44
6553.77;6582.8725;6567.34;6627.80;6623.01;6465.3;6612.29
6553.77;6582.8725;6567.34;6627.80;6618;6464.8;6612.29
6553.77;6582.8725;6577.06;6627.80;6618;6455.8;6612.29
6553.77;6582.8725;6567.34;6627.80;6618;6459.5;6612.29
6553.77;6582.8725;6567.34;6627.80;6618;6454.9;6612.29
6553.77;6562.8088;6567.34;6627.80;6618;6454.8;6600.00
6553.77;6562.8088;6551.72;6627.80;6618;6454.5;6600.00
6553.77;6562.8088;6551.72;6627.80;6618;6450.0;6600.00
6553.77;6562.8088;6551.72;6627.80;6592.29;6441.4;6600.00
6604.43;6562.8088;6551.72;6627.80;6592.29;6440.1;6600.00
6604.43;6562.8088;6551.72;6627.80;6592.29;6439.7;6588.88
6604.43;6546.3675;6551.72;6627.80;6592.29;6439.6;6588.88
6604.43;6546.3675;6514.08;6627.80;6592.29;6438.1;6588.88
6604.43;6546.3675;6567.34;6627.80;6592.29;6434.9;6588.88
6604.43;6546.3675;6567.34;6627.80;6580;6432.7;6576.00
6604.43;6546.3675;6514.08;6627.80;6580;6420.1;6576.00
6604.43;6531.4063;6514.08;6627.80;6580;6420.1;6576.00
6604.43;6531.4063;6528.3;6627.80;6580;6410.7;6576.00
6604.43;6531.4063;6576.02;6627.80;6580;6410.1;6545.00
6604.43;6531.4063;6514.08;6627.80;6580;6409.8;6545.00
6604.43;6507.7475;6528.3;6627.80;6554.01;6402.0;6545.00
6604.43;6507.7475;6528.3;6627.80;6554.01;6402.1;6545.00
6604.43;6507.7475;6491.46;6627.80;6554.01;6402.0;6545.00
6604.43;6507.7475;6491.46;6627.80;6554.01;6401.0;6520.90
6604.43;6507.7475;6491.46;6627.80;6554.01;6401.1;6520.90
6604.43;6507.7475;6476.85;6627.80;6554.01;6400.1;6520.90
6604.43;6485.6975;6491.46;6627.80;6520.9;6400.1;6520.90
6604.43;6485.6975;6528.3;6627.80;6520.9;6387.6;6520.90
6604.43;6485.6975;6497.04;6627.80;6520.9;6380.5;6520.90
6604.43;6485.6975;6497.04;6627.80;6520.9;6387.4;6520.90
6604.43;6485.6975;6459.71;6627.80;6520.9;6387.1;6520.90
6604.43;6485.6975;6459.71;6627.80;6520.9;6384.8;6520.90
6604.43;6477.065;6459.71;6509.06;6484;6387.0;6520.90
6604.43;6477.065;6459.71;6509.06;6484;6382.8;6520.90
6604.43;6477.065;6459.71;6509.06;6484;6392.7;6520.90
6604.43;6477.065;6459.71;6509.06;6484;6399.5;6520.90
6391.47;6477.065;6459.71;6509.06;6484;6400.2;6520.90
6391.47;6477.065;6459.71;6509.06;6484;6420.0;6520.90
6391.47;6470.075;6491.46;6509.06;6484;6428.4;6500.00
6391.47;6470.075;6459.71;6509.06;6505.13;6428.4;6500.00
6391.47;6470.075;6491.46;6509.06;6505.13;6450.0;6500.00
6391.47;6470.075;6447.81;6509.06;6505.13;6445.0;6500.00
6391.47;6470.075;6447.81;6509.06;6505.13;6441.8;6512.12
6391.47;6470.075;6447.81;6509.06;6505.13;6430.0;6512.12
6391.47;6483.3275;6447.81;6519.97;6505.13;6437.4;6512.12
6391.47;6483.3275;6447.81;6519.97;6509.92;6430.0;6512.12
6391.47;6483.3275;6447.81;6519.97;6509.92;6425.2;6512.12
6391.47;6483.3275;6447.68;6519.97;6509.92;6424.9;6512.12
6391.47;6483.3275;6479.33;6519.97;6509.92;6413.3;6512.12
6391.47;6483.3275;6479.33;6519.97;6509.92;6414.01388883;6512.12
6391.47;6485.5238;6479.33;6519.97;6509.92;6418.7;6512.12
6391.47;6485.5238;6447.81;6519.97;6509.92;6417.9;6512.12
6391.47;6485.5238;6479.33;6519.97;6518;6418.1;6512.12
6391.47;6485.5238;6478.97;6519.97;6518;6418.0;6512.12
6391.47;6485.5238;6475.45;6519.97;6518;6417.9;6530.00
6391.47;6485.5238;6478.97;6519.97;6518;6417.2;6530.00
6391.47;6485.5238;6475.45;6527.14;6518;6417.0;6530.00
6391.47;6485.5238;6475.45;6519.97;6518;6412.8;6530.00
6391.47;6490.5888;6475.45;6519.97;6518;6413.7;6530.00
6391.47;6490.5888;6475.45;6527.14;6527.81;6413.3;6530.00
6391.47;6490.5888;6475.45;6527.14;6527.81;6413.3;6519.88
6391.47;6490.5888;6470.79;6527.14;6527.81;6413.4;6519.88
6391.47;6490.5888;6470.79;6527.14;6527.81;6413.5;6519.88
6391.47;6490.5888;6470.79;6527.14;6527.81;6413.5;6519.88
6391.47;6478.3113;6470.79;6527.14;6527.81;6415.0;6519.88
6391.47;6478.3113;6470.79;6527.14;6527.81;6414.9;6519.88
6391.47;6478.3113;6479.33;6527.14;6527.81;6420.0;6519.88
6391.47;6478.3113;6470.79;6527.14;6514;6415.7;6519.88
6547.25;6478.3113;6479.33;6527.14;6514;6420.0;6519.88
6547.25;6478.3113;6470.79;6527.14;6514;6420.0;6519.88
6547.25;6478.9113;6479.33;6527.14;6514;6418.2;6513.65
6547.25;6478.9113;6470.79;6527.14;6514;6420.0;6513.65
6547.25;6478.9113;6470.79;6527.14;6514;6418.3;6513.65
6547.25;6478.9113;6470.79;6527.14;6503;6420.0;6513.65
6547.25;6478.9113;6462.8;6527.14;6503;6417.8;6513.65
6547.25;6478.9113;6462.8;6527.14;6503;6415.0;6513.65
6547.25;6478.9113;6462.8;6527.14;6503;6412.0;6514.00
6547.25;6478.9113;6462.8;6527.14;6503;6412.0;6514.00
6547.25;6481.9138;6462.8;6527.14;6503;6408.3;6514.00
6547.25;6481.9138;6462.8;6527.14;6503;6408.1;6514.00
6547.25;6481.9138;6462.8;6527.14;6505.02;6409.9;6514.00
6547.25;6481.9138;6465.02;6527.14;6505.02;6408.4;6514.00
6547.25;6481.9138;6462.8;6527.14;6505.02;6408.2;6513.99
6547.25;6481.9138;6462.8;6527.14;6505.02;6408.2;6513.99
6547.25;6481.2063;6462.8;6527.14;6505.02;6407.8;6513.99
6547.25;6481.2063;6462.8;6527.14;6505.02;6408.2;6513.99
6547.25;6481.2063;6462.8;6527.14;6505.02;6404.0;6513.99
6547.25;6481.2063;6462.8;6527.14;6501.01;6405.0;6513.99
6547.25;6481.2063;6468.79;6527.14;6501.01;6405.0;6501.00
6547.25;6481.2063;6461.61;6527.14;6501.01;6404.9;6501.00
6547.25;6479.0388;6465.02;6527.14;6501.01;6404.7;6501.00
6547.25;6479.0388;6461.61;6527.14;6501.01;6404.9;6501.00
6547.25;6479.0388;6468.79;6527.14;6501.01;6399.6;6501.00
6547.25;6479.0388;6468.79;6527.14;6501.01;6391.9;6513.36
6547.25;6479.0388;6468.75;6527.14;6501.01;6388.2;6513.36
6547.25;6479.0388;6468.75;6527.14;6501.01;6392.6;6513.36
6547.25;6469.415;6468.75;6527.14;6501.01;6389.8;6513.36
6547.25;6469.415;6468.75;6527.14;6501.01;6387.8;6513.36
6547.25;6469.415;6458.53;6527.14;6501.01;6387.8;6483.18
6547.25;6469.415;6461.7;6527.14;6501.01;6388.0;6483.18
6547.25;6469.415;6461.7;6527.14;6501.01;6384.6;6483.18
6503.71;6469.415;6460.02;6527.14;6482.95;6388.0;6483.18
6503.71;6469.415;6460.02;6527.14;6482.95;6388.0;6483.18
6503.71;6469.415;6460.02;6527.14;6482.95;6387.9;6483.18
6503.71;6461.0313;6461.61;6527.14;6482.95;6387.9;6473.24
6503.71;6461.0313;6460.02;6527.14;6482.95;6388.0;6473.24
6503.71;6461.0313;6458.53;6527.14;6482.95;6383.2;6473.24
6503.71;6461.0313;6458.53;6527.14;6482.95;6380.5;6473.24
6503.71;6461.0313;6458.53;6527.14;6478.14;6384.9;6473.24
6503.71;6461.0313;6442.07;6527.14;6478.14;6381.9;6480.02
6503.71;6462.57;6442.07;6527.14;6478.14;6383.0;6480.02
